@startuml
left to right direction
skinparam ClassAttributeIconSize 0

Class Журнал {
  -Периодичность: string
  --
  +Журнал()
  +Журнал(id, Название, Автор, Жанр, Издатель, Год издания, Периодичность)
  --
  +Подписаться()
}

Class Книга {
  -Id
  -Название
  -Автор
  -Жанр
  --
  +Книга()
  +Книга(id, Название, Автор, Жанр)
  --
  +Читать()
}

Class Печатное_издание {
  -Издатель
  -Год издания
  --
  +Печатное_издание()
  +Печатное_издание(id, Название, Автор, Жанр, Издатель, Год издания)
  --
  +Купить()
}

Class Учебник {
  -Для учеников
  --
  +Учебник()
  +Учебник(id, Название, Автор, Жанр, Издатель, Год издания, Для учеников)
  --
  +Изучать()
}

Журнал --|> Печатное_издание 
Учебник --|> Печатное_издание
Печатное_издание --|> Книга

@enduml